{"total_results":4039,"page":1,"total_pages":202,"results":[{"video":false,"id":251,"popularity":23.976,"vote_count":3820,"release_date":"1990-07-12","adult":false,"backdrop_path":"\/6nLdSON3ErniBZTXWG7WRqs5jGz.jpg","vote_average":7.2,"genre_ids":[14,18,53,9648,10749],"overview":"Sam Wheat is a banker, Molly Jensen is an artist, and the two are madly in love. However, when Sam is murdered by his friend and corrupt business partner Carl Bruner over a shady business deal, he is left to roam the earth as a powerless spirit. When he learns of Carl's betrayal, Sam must seek the help of psychic Oda Mae Brown to set things right and protect Molly from Carl and his goons.","original_language":"en","original_title":"Ghost","poster_path":"\/w9RaPHov8oM5cnzeE27isnFMsvS.jpg","title":"Ghost"},{"video":false,"id":771,"popularity":3.341,"vote_count":7196,"release_date":"1990-11-16","adult":false,"backdrop_path":"\/rRNsAIYiJdQHULseGsV9fQSOTDc.jpg","vote_average":7.3,"genre_ids":[35,10751],"overview":"Eight-year-old Kevin McCallister makes the most of the situation after his family unwittingly leaves him behind when they go on Christmas vacation. But when a pair of bungling burglars set their sights on Kevin's house, the plucky kid stands ready to defend his territory. By planting booby traps galore, adorably mischievous Kevin stands his ground as his frantic mother attempts to race home before Christmas Day.","original_language":"en","original_title":"Home Alone","poster_path":"\/9wSbe4CwObACCQvaUVhWQyLR5Vz.jpg","title":"Home Alone"},{"video":false,"id":114,"popularity":30.816,"vote_count":5232,"release_date":"1990-03-23","adult":false,"backdrop_path":"\/qR65BuiuYtazfO2TiUejkYeWc7V.jpg","vote_average":7.4,"genre_ids":[10749,35],"overview":"When a millionaire wheeler-dealer enters a business contract with a Hollywood hooker Vivian Ward, he loses his heart in the bargain.","original_language":"en","original_title":"Pretty Woman","poster_path":"\/hMVMMy1yDUvdufpTl8J8KKNYaZX.jpg","title":"Pretty Woman"},{"video":false,"id":581,"popularity":20.363,"vote_count":2723,"release_date":"1990-03-30","adult":false,"backdrop_path":"\/aXKUodFZfaMMm2nM4rdekrNgvE2.jpg","vote_average":7.9,"genre_ids":[12,18,37],"overview":"Wounded Civil War soldier, John Dunbar tries to commit suicide—and becomes a hero instead. As a reward, he's assigned to his dream post, a remote junction on the Western frontier, and soon makes unlikely friends with the local Sioux tribe.","original_language":"en","original_title":"Dances with Wolves","poster_path":"\/cvaBVpS0GzKqBd63pFT8f1E8OKv.jpg","title":"Dances with Wolves"},{"video":false,"vote_average":7.2,"popularity":40.928,"overview":"Construction worker Douglas Quaid discovers a memory chip in his brain during a virtual-reality trip. He also finds that his past has been invented to conceal a plot of planetary domination. Soon, he's off to Mars to find out who he is and who planted the chip.","release_date":"1990-06-01","adult":false,"backdrop_path":"\/ergECcue7gOAV5zvnKm5IIVFmKE.jpg","id":861,"genre_ids":[28,12,878],"vote_count":3755,"original_language":"en","original_title":"Total Recall","poster_path":"\/wVbeL6fkbTKSmNfalj4VoAUUqJv.jpg","title":"Total Recall"},{"video":false,"id":196,"popularity":23.062,"vote_count":7223,"release_date":"1990-05-25","adult":false,"backdrop_path":"\/wFS1b1x38nl9sBpE5VDaD4HKfok.jpg","vote_average":7.4,"genre_ids":[12,35,878],"overview":"The final installment of the Back to the Future trilogy finds Marty digging the trusty DeLorean out of a mineshaft and looking for Doc in the Wild West of 1885. But when their time machine breaks down, the travelers are stranded in a land of spurs. More problems arise when Doc falls for pretty schoolteacher Clara Clayton, and Marty tangles with Buford Tannen.","original_language":"en","original_title":"Back to the Future Part III","poster_path":"\/cZO1zLEFACR06FwpXN9urvmoulR.jpg","title":"Back to the Future Part III"},{"video":false,"id":1573,"popularity":22.462,"overview":"Off-duty cop John McClane is gripped with a feeling of déjà vu when, on a snowy Christmas Eve in the nation’s capital, terrorists seize a major international airport, holding thousands of holiday travelers hostage. Renegade military commandos led by a murderous rogue officer plot to rescue a drug lord from justice and are prepared for every contingency except one: McClane’s smart-mouthed heroics.","release_date":"1990-07-02","adult":false,"backdrop_path":"\/fgkgab4Rel0nOI3B3scHeNB4Mn6.jpg","vote_count":3807,"genre_ids":[28,53],"vote_average":6.9,"original_language":"en","original_title":"Die Hard 2","poster_path":"\/ybki0UWO3OPhaM6MSniuKC7sy1R.jpg","title":"Die Hard 2"},{"video":false,"id":11092,"popularity":9.787,"overview":"Rusty Sabich is a deputy prosecutor engaged in an obsessive affair with a coworker who is murdered. Soon after, he's accused of the crime. And his fight to clear his name becomes a whirlpool of lies and hidden passions.","release_date":"1990-07-26","adult":false,"backdrop_path":"\/1n8JUUT8Ea1wBMGf2teMCGQeBZn.jpg","vote_count":394,"genre_ids":[53,80,9648],"vote_average":6.8,"original_language":"en","original_title":"Presumed Innocent","poster_path":"\/jSPWptOsqU1nxXQe6muSPB0kD3c.jpg","title":"Presumed Innocent"},{"video":false,"id":1498,"popularity":21.564,"overview":"A quartet of mutated humanoid turtles clash with an uprising criminal gang of ninjas","release_date":"1990-03-30","adult":false,"backdrop_path":"\/v9HELu91Y1CHivMHmA3LBYgfUMD.jpg","vote_count":1100,"genre_ids":[878,28,12,35,10751],"vote_average":6.6,"original_language":"en","original_title":"Teenage Mutant Ninja Turtles","poster_path":"\/jKi5Q1kd6azoGI6hUJh0p0RxSmu.jpg","title":"Teenage Mutant Ninja Turtles"},{"video":false,"id":951,"popularity":6.888,"vote_count":1605,"release_date":"1990-12-21","adult":false,"backdrop_path":"\/qWP5TlH1448Pt9ayyuLZJY0NXWj.jpg","vote_average":6,"genre_ids":[35],"overview":"Hard-edged cop John Kimble gets more than he bargained for when he goes undercover as a kindergarten teacher to get the goods on a brutal drug lord while at the same time protecting the man's young son. Pitted against a class of boisterous moppets whose antics try his patience and test his mettle, Kimble may have met his match … in more ways than one.","original_language":"en","original_title":"Kindergarten Cop","poster_path":"\/nKnHWwkXyvhzCYWm3FyRAv3qBrl.jpg","title":"Kindergarten Cop"},{"video":false,"id":1669,"popularity":16.601,"overview":"A new, technologically-superior Soviet sub, the Red October, is heading for the U.S. coast under the command of Captain Marko Ramius. The American government thinks Ramius is planning to attack. A lone CIA analyst has a different idea: he thinks Ramius is planning to defect, but he has only a few hours to find him and prove it — because the entire Russian naval and air commands are trying to find him, too.","release_date":"1990-03-02","adult":false,"backdrop_path":"\/ysYBfA0VcbJic9CURRmR1QwWaKw.jpg","vote_count":2044,"genre_ids":[28,12,53],"vote_average":7.4,"original_language":"en","original_title":"The Hunt for Red October","poster_path":"\/yVl7zidse4KiWtGMqHFtZCx4X3N.jpg","title":"The Hunt for Red October"},{"video":false,"id":2119,"popularity":17.946,"vote_count":851,"release_date":"1990-06-27","adult":false,"backdrop_path":"\/7iXHBVKPPCO19yHHnHjL0D16i4e.jpg","vote_average":6.2,"genre_ids":[12,28,10749,18],"overview":"Talented but unproven stock car driver Cole Trickle gets a break and with the guidance of veteran Harry Hogge turns heads on the track. The young hotshot develops a rivalry with a fellow racer that threatens his career when the two smash their cars. But with the help of his doctor, Cole just might overcome his injuries-- and his fear.","original_language":"en","original_title":"Days of Thunder","poster_path":"\/2xfP227oLToQjBCUg3FI18pWh3G.jpg","title":"Days of Thunder"},{"video":false,"id":11595,"popularity":15.784,"overview":"For the past four years, San Francisco cop Jack Cates has been after an unidentified drug kingpin who calls himself the \"Ice Man\". Jack finds a picture that proves that the Ice Man has put a price on the head of Reggie Hammond, who is scheduled to be released from prison on the next day.","release_date":"1990-06-08","adult":false,"backdrop_path":"\/6x7yvYQjVvqGHf9fkLUUlHAFo9R.jpg","vote_count":485,"genre_ids":[53,28,35,80,18],"vote_average":5.9,"original_language":"en","original_title":"Another 48 Hrs.","poster_path":"\/2gQaZQ6REriS7Gclv1akT5Urwgf.jpg","title":"Another 48 Hrs."},{"video":false,"id":1727,"popularity":11.198,"vote_count":508,"release_date":"1990-05-18","adult":false,"backdrop_path":"\/bwJqzmceQDf5G5lq0uT8WJbmsJ4.jpg","vote_average":6.1,"genre_ids":[28,12,35,10749],"overview":"A FBI informant has kept his new identity secret for 15 years, now an old flame has recognised him and the bad guys are back for revenge.","original_language":"en","original_title":"Bird on a Wire","poster_path":"\/vhsv2PrAPZ79ZpV64AJ2TiEI2zX.jpg","title":"Bird on a Wire"},{"video":false,"id":242,"popularity":25.686,"overview":"In the midst of trying to legitimize his business dealings in 1979 New York and Italy, aging mafia don, Michael Corleone seeks forgiveness for his sins while taking a young protege under his wing.","release_date":"1990-12-25","adult":false,"backdrop_path":"\/mm6ex61CAcRCgd4ua0IZ3wAx0qW.jpg","vote_count":3982,"genre_ids":[80,18,53],"vote_average":7.4,"original_language":"en","original_title":"The Godfather: Part III","poster_path":"\/1hdm3Axw9LjITbApvAXBbqO58zE.jpg","title":"The Godfather: Part III"},{"video":false,"id":1375,"popularity":27.947,"vote_count":2028,"release_date":"1990-11-16","adult":false,"backdrop_path":"\/ne1ivJv3lGGUvZ9F72P0r2xpksB.jpg","vote_average":5.7,"genre_ids":[18],"overview":"A lifetime of taking shots has ended Rocky’s career, and a crooked accountant has left him broke. Inspired by the memory of his trainer, however, Rocky finds glory in training and takes on an up-and-coming boxer.","original_language":"en","original_title":"Rocky V","poster_path":"\/qCARerjCFZOEeLiVdomhwRYlDSn.jpg","title":"Rocky V"},{"video":false,"id":8592,"popularity":12.102,"overview":"The comic strip detective finds his life vastly complicated when Breathless Mahoney makes advances towards him while he is trying to battle Big Boy Caprice's united mob.","release_date":"1990-04-05","adult":false,"backdrop_path":"\/epssVTMw8GcESgBjSDdamzq0Gwu.jpg","vote_count":607,"genre_ids":[12,28,35,53,80],"vote_average":6.1,"original_language":"en","original_title":"Dick Tracy","poster_path":"\/xY6D5Ti44xuwzCkmf6Ygbj86BkP.jpg","title":"Dick Tracy"},{"video":false,"id":170805,"popularity":0.84,"vote_count":2,"release_date":"1990-10-25","adult":false,"backdrop_path":null,"vote_average":6,"genre_ids":[28,12,35],"overview":"A team of Chinese cops based in Greece known as \"The Cyprus Tigers\" and a crooked businessman, along with his Japanese henchmen, are after a set of counterfeit money printing plates.","original_language":"cn","original_title":"東方老虎","poster_path":null,"title":"The Cyprus Tigers"},{"video":false,"id":1551,"popularity":15.426,"vote_count":974,"release_date":"1990-08-10","adult":false,"backdrop_path":"\/f6HK5Uk9LQwPpdcdQA5BIhcNa6f.jpg","vote_average":6.4,"genre_ids":[18,27,878],"overview":"Five medical students want to find out if there is life after death. They plan to stop one of their hearts for a few seconds, thus simulating death, and then bring the person back to life.","original_language":"en","original_title":"Flatliners","poster_path":"\/wda3j7p7YHXKpFIlSzoTCtP7myF.jpg","title":"Flatliners"},{"video":false,"id":1700,"popularity":14.568,"vote_count":2959,"release_date":"1990-11-30","adult":false,"backdrop_path":"\/jwEbF0olhatEdhBnviJiEruazff.jpg","vote_average":7.7,"genre_ids":[18,53],"overview":"Novelist Paul Sheldon crashes his car on a snowy Colorado road. He is found by Annie Wilkes, the \"number one fan\" of Paul's heroine Misery Chastaine. Annie is also somewhat unstable, and Paul finds himself crippled, drugged and at her mercy.","original_language":"en","original_title":"Misery","poster_path":"\/klPO5oh1LOxiPpdDXZo1ADgpKcw.jpg","title":"Misery"}]}