{"total_results":3976,"page":1,"total_pages":199,"results":[{"video":false,"id":280,"popularity":48.865,"vote_count":8697,"release_date":"1991-07-03","adult":false,"backdrop_path":"\/xKb6mtdfI5Qsggc44Hr9CCUDvaj.jpg","vote_average":8,"genre_ids":[28,53,878],"overview":"Nearly 10 years have passed since Sarah Connor was targeted for termination by a cyborg from the future. Now her son, John, the future leader of the resistance, is the target for a newer, more deadly terminator. Once again, the resistance has managed to send a protector back to attempt to save John and his mother Sarah.","original_language":"en","original_title":"Terminator 2: Judgment Day","poster_path":"\/5M0j0B18abtBI5gi2RhfjjurTqb.jpg","title":"Terminator 2: Judgment Day"},{"video":false,"id":8367,"popularity":18.01,"overview":"When the dastardly Sheriff of Nottingham murders Robin's father, the legendary archer vows vengeance. To accomplish his mission, Robin joins forces with a band of exiled villagers (and comely Maid Marian), and together they battle to end the evil sheriff's reign of terror.","release_date":"1991-06-14","adult":false,"backdrop_path":"\/3IutrlqLAOySvpiQQquXNkdn8g1.jpg","vote_count":2184,"genre_ids":[12,10749],"vote_average":6.8,"original_language":"en","original_title":"Robin Hood: Prince of Thieves","poster_path":"\/hbRnWUNJkKKVN5mkcuC5ooqjE4e.jpg","title":"Robin Hood: Prince of Thieves"},{"video":false,"id":10020,"popularity":36.906,"vote_count":7282,"release_date":"1991-11-13","adult":false,"backdrop_path":"\/2RwQ5cwT1Ebt3ScxkJpR1nHOkXy.jpg","vote_average":7.7,"genre_ids":[10749,10751,16,14],"overview":"Follow the adventures of Belle, a bright young woman who finds herself in the castle of a prince who's been turned into a mysterious beast. With the help of the castle's enchanted staff, Belle soon learns the most important lesson of all -- that true beauty comes from within.","original_language":"en","original_title":"Beauty and the Beast","poster_path":"\/7oCAPOphDKpIaxTrnukmDrZ8XKD.jpg","title":"Beauty and the Beast"},{"video":false,"id":879,"popularity":20.747,"overview":"The boy who wasn't supposed grow up—Peter Pan—does just that, becoming a soulless corporate lawyer whose workaholism could cost him his wife and kids. During his trip to see Granny Wendy in London, the vengeful Capt. Hook kidnaps Peter's kids and forces Peter to return to Neverland.","release_date":"1991-04-10","adult":false,"backdrop_path":"\/6X0TfbTLe4NENu8GK3pZWSd7zvv.jpg","vote_count":3783,"genre_ids":[12,14,35,10751],"vote_average":6.9,"original_language":"en","original_title":"Hook","poster_path":"\/a6rB1lGXoGms7gWxRfJneQmAjNV.jpg","title":"Hook"},{"video":false,"id":274,"popularity":8.628,"overview":"Clarice Starling is a top student at the FBI's training academy. Jack Crawford wants Clarice to interview Dr. Hannibal Lecter, a brilliant psychiatrist who is also a violent psychopath, serving life behind bars for various acts of murder and cannibalism. Crawford believes that Lecter may have insight into a case and that Starling, as an attractive young woman, may be just the bait to draw him out.","release_date":"1991-02-01","adult":false,"backdrop_path":"\/pI9B4wppGflpsOD2T6rxgC5Clmz.jpg","vote_count":11078,"genre_ids":[80,18,53,27],"vote_average":8.3,"original_language":"en","original_title":"The Silence of the Lambs","poster_path":"\/rplLJ2hPcOQmkFhTqUte0MkEaO2.jpg","title":"The Silence of the Lambs"},{"video":false,"id":820,"popularity":17.015,"overview":"Follows the investigation into the assassination of President John F. Kennedy led by New Orleans district attorney Jim Garrison.","release_date":"1991-12-20","adult":false,"backdrop_path":"\/hMxNbMsA1x3QIbsszKy70AJAqYl.jpg","vote_count":1256,"genre_ids":[18,53,36],"vote_average":7.7,"original_language":"en","original_title":"JFK","poster_path":"\/r0VWVTYlqdRCK5ZoOdNnHdqM2gt.jpg","title":"JFK"},{"video":false,"id":2907,"popularity":20.24,"overview":"When an evil doctor finds out Uncle Fester has been missing for 25 years, he introduces a fake Fester in an attempt to get the Addams family's money. Wednesday has some doubts about the new uncle Fester, but the fake uncle adapts very well to the strange family.","release_date":"1991-11-22","adult":false,"backdrop_path":"\/c49rFrkHc6P7eQYrE6irZhaWIxy.jpg","vote_count":2996,"genre_ids":[35,14],"vote_average":7,"original_language":"en","original_title":"The Addams Family","poster_path":"\/qFf8anju5f2epI0my8RdwwIXFIP.jpg","title":"The Addams Family"},{"video":false,"id":1598,"popularity":14.175,"vote_count":2035,"release_date":"1991-11-15","adult":false,"backdrop_path":"\/ntgpger7OwFNlEldxuvvFHDKzjW.jpg","vote_average":7.3,"genre_ids":[53,80],"overview":"Sam Bowden is a small-town corporate attorney. Max Cady is a tattooed, cigar-smoking, bible-quoting, psychotic rapist. What do they have in common? Fourteen years ago, Sam was a public defender assigned to Max Cady's rape trial, and he made a serious error: he hid a document from his illiterate client that could have gotten him acquitted. Now, the cagey, bibliophile Cady has been released, and he intends to teach Sam Bowden and his family a thing or two about loss.","original_language":"en","original_title":"Cape Fear","poster_path":"\/meJZAAuVcjic2ipvbOPz5UlE4P9.jpg","title":"Cape Fear"},{"video":false,"id":9595,"popularity":14.361,"vote_count":1335,"release_date":"1991-07-31","adult":false,"backdrop_path":"\/k4BaT86IP1QJA0UKjuj3oqTieVW.jpg","vote_average":6.5,"genre_ids":[28,35,10752],"overview":"Recruited to join a top-secret mission for the Air Force, a renegade pilot finds himself coping with an incompetent admiral and a carefully selected squadron of flyers who are either inept or half-blind.","original_language":"en","original_title":"Hot Shots!","poster_path":"\/2e9g8SEXBmFysLKJZOb64ecWVTq.jpg","title":"Hot Shots!"},{"video":false,"id":1406,"popularity":8.26,"vote_count":484,"release_date":"1991-06-07","adult":false,"backdrop_path":"\/f7SEefeT1pjPgqOZM343nID4mXU.jpg","vote_average":6.4,"genre_ids":[35,37],"overview":"Three New York businessmen decide to take a \"Wild West\" vacation that turns out not to be the relaxing vacation they had envisioned.","original_language":"en","original_title":"City Slickers","poster_path":"\/9DVZpm9pQNB3M17cRo752zqUYhL.jpg","title":"City Slickers"},{"video":false,"id":7442,"popularity":12.241,"vote_count":609,"release_date":"1991-01-13","adult":false,"backdrop_path":"\/opIpL7DgxBG3HZIVzLgKPxOxeYP.jpg","vote_average":6.4,"genre_ids":[18,80,53],"overview":"A young woman fakes her own death in an attempt to escape her nightmarish marriage, but discovers it is impossible to elude her controlling husband.","original_language":"en","original_title":"Sleeping with the Enemy","poster_path":"\/jWbb8qCJX8Su1p90xFSG5kOAyC9.jpg","title":"Sleeping with the Enemy"},{"video":false,"id":2924,"popularity":11.14,"vote_count":852,"release_date":"1991-05-24","adult":false,"backdrop_path":"\/qFICrzFmu1X5l49fHAsOkef9uif.jpg","vote_average":6.6,"genre_ids":[80,18,53],"overview":"Firemen brothers Brian and Stephen McCaffrey battle each other over past slights while trying to stop an arsonist with a diabolical agenda from torching Chicago.","original_language":"en","original_title":"Backdraft","poster_path":"\/bymJtYNIdiAiBR1LRetaJXbfryc.jpg","title":"Backdraft"},{"video":false,"id":1633,"popularity":9.101,"vote_count":850,"release_date":"1991-12-27","adult":false,"backdrop_path":"\/tectp2uQ9gF7XUgL2SuPPk9492V.jpg","vote_average":7.7,"genre_ids":[18,35],"overview":"Amidst her own personality crisis, southern housewife Evelyn Couch meets Ninny, an outgoing old woman who tells her the story of Idgie Threadgoode and Ruth Jamison, two young women who experienced hardships and love in Whistle Stop, Alabama in the 1920s.","original_language":"en","original_title":"Fried Green Tomatoes","poster_path":"\/g71l1vbJwyAAYk8zKCkIQQ58qcb.jpg","title":"Fried Green Tomatoes"},{"video":false,"id":174,"popularity":9.805,"overview":"On the eve of retirement, Kirk and McCoy are charged with assassinating the Klingon High Chancellor and imprisoned. The Enterprise crew must help them escape to thwart a conspiracy aimed at sabotaging the last best hope for peace.","release_date":"1991-12-06","adult":false,"backdrop_path":"\/vfo2dzdXnoArYwrkM7kw1vgb7dL.jpg","vote_count":804,"genre_ids":[878,28,12,53],"vote_average":7,"original_language":"en","original_title":"Star Trek VI: The Undiscovered Country","poster_path":"\/tvTOJD7Gz668GLy2nNdLRQvpPsv.jpg","title":"Star Trek VI: The Undiscovered Country"},{"video":false,"id":11846,"popularity":12.61,"overview":"George Banks is an ordinary, middle-class man whose 22 year-old daughter Annie has decided to marry a man from an upper-class family, but George can't think of what life would be like without his daughter. His wife tries to make him happy for Annie, but when the wedding takes place at their home and a foreign wedding planner takes over the ceremony, he becomes slightly insane.","release_date":"1991-12-20","adult":false,"backdrop_path":"\/A8ZKLVp2qs4zqO8rJJrBN9dCV7o.jpg","vote_count":852,"genre_ids":[35,10749],"vote_average":6.4,"original_language":"en","original_title":"Father of the Bride","poster_path":"\/g6OTK7l6EX2JP5r00O5fG6BZJlh.jpg","title":"Father of the Bride"},{"video":false,"id":37137,"popularity":13.986,"vote_count":1348,"release_date":"1991-06-28","adult":false,"backdrop_path":"\/8DQvLaz6eNKRTrtXTylrGhsYIpY.jpg","vote_average":6.8,"genre_ids":[35,80],"overview":"Bumbling cop Frank Drebin is out to foil the big boys in the energy industry, who intend to suppress technology that will put them out of business.","original_language":"en","original_title":"The Naked Gun 2½: The Smell of Fear","poster_path":"\/v9niLQWVzVPB1cP1ThNdEaLZG1Q.jpg","title":"The Naked Gun 2½: The Smell of Fear"},{"video":false,"id":1089,"popularity":16.349,"vote_count":2222,"release_date":"1991-01-31","adult":false,"backdrop_path":"\/cRj8AJ9U2WsBHUjNW3s9V3kAjBO.jpg","vote_average":7.1,"genre_ids":[28,53,80],"overview":"In Los Angeles, a gang of bank robbers who call themselves The Ex-Presidents commit their crimes while wearing masks of Reagan, Carter, Nixon and Johnson. Believing that the members of the gang could be surfers, the F.B.I. sends young agent Johnny Utah to the beach undercover to mix with the surfers and gather information.","original_language":"en","original_title":"Point Break","poster_path":"\/tlbERIghrQ4oofqlbF7H0K0EYnx.jpg","title":"Point Break"},{"video":false,"vote_average":6.1,"popularity":14.969,"vote_count":689,"release_date":"1991-03-22","adult":false,"backdrop_path":"\/8VGaEXbTOGeWGW7IvzOf1j2rjet.jpg","id":1497,"genre_ids":[878,12,28,35,10751],"overview":"The Turtles and the Shredder battle once again, this time for the last cannister of the ooze that created the Turtles, which Shredder wants to create an army of new mutants.","original_language":"en","title":"Teenage Mutant Ninja Turtles II: The Secret of the Ooze","poster_path":"\/Hyvvz9Z3le1is8a0EeFJQm0aSC.jpg","original_title":"Teenage Mutant Ninja Turtles II: The Secret of the Ooze"},{"video":false,"id":10333,"popularity":10.669,"vote_count":155,"release_date":"1991-12-25","adult":false,"backdrop_path":"\/lrhZ2Zfgsgu078X3EC4XMCTe3Vf.jpg","vote_average":6.6,"genre_ids":[18,10749],"overview":"A troubled man talks to his suicidal sister's psychiatrist about their family history and falls in love with her in the process.","original_language":"en","original_title":"The Prince of Tides","poster_path":"\/9XnfC64QRUp5HYPtSVasi7L9NGk.jpg","title":"The Prince of Tides"},{"video":false,"id":11384,"popularity":10.458,"overview":"Seeking to raise his credibility as an actor and to land a role as a tough cop on a new show, Hollywood action star Nick Lang works a deal with New York City Police Capt. Brix, who by chance is one of his fans. Nick will be paired with detective Lt. John Moss and learn how to act like a real cop. But when Nick drives John crazy with questions and imitating him, he gets in the way of John's pursuit of a serial killer.","release_date":"1991-03-08","adult":false,"backdrop_path":"\/lFuVq0eX1thPUyrjk3XPYVHo3NF.jpg","vote_count":247,"genre_ids":[28,35,80],"vote_average":6.2,"original_language":"en","original_title":"The Hard Way","poster_path":"\/1Nu42swt2QbHGV5o69UJL9EaprJ.jpg","title":"The Hard Way"}]}