{"results":[{"popularity":28.519,"overview":"With computer genius Luther Stickell at his side and a beautiful thief on his mind, agent Ethan Hunt races across Australia and Spain to stop a former IMF agent from unleashing a genetically engineered biological weapon called Chimera. This mission, should Hunt choose to accept it, plunges him into the center of an international crisis of terrifying magnitude.","release_date":"2000-05-24","id":955,"adult":false,"backdrop_path":"\/8XaohdSqoBEWHhW40q2VTdMBrV0.jpg","title":"Mission: Impossible II","genre_ids":[12,28,53],"original_language":"en","original_title":"Mission: Impossible II","poster_path":"\/l2uHFznAMEAgSV3YsT6uUGIsJQO.jpg","vote_count":4462,"video":false,"vote_average":6.1},{"popularity":40.707,"vote_count":12740,"release_date":"2000-05-01","id":98,"adult":false,"backdrop_path":"\/aZtwH3RQ0L8jbInxr7OSc9tlGMJ.jpg","title":"Gladiator","genre_ids":[28,18,12],"original_language":"en","original_title":"Gladiator","poster_path":"\/pRn3TJHbAqCAO6U8Dw5DayVUuX3.jpg","overview":"In the year 180, the death of emperor Marcus Aurelius throws the Roman Empire into chaos.  Maximus is one of the Roman army's most capable and trusted generals and a key advisor to the emperor.  As Marcus' devious son Commodus ascends to the throne, Maximus is set to be executed.  He escapes, but is captured by slave traders.  Renamed Spaniard and forced to become a gladiator, Maximus must battle to the death with other men for the amusement of paying audiences.","video":false,"vote_average":8.2},{"popularity":27.162,"vote_count":7950,"release_date":"2000-12-22","id":8358,"adult":false,"backdrop_path":"\/ioqaIhJSkwa9DGRHGtOOUTiGRs2.jpg","title":"Cast Away","genre_ids":[12,18],"original_language":"en","original_title":"Cast Away","poster_path":"\/4x4puNUAqBpi9sUMYL5dNPSdB6I.jpg","overview":"Chuck Nolan, a top international manager for FedEx, and Kelly, a Ph.D. student, are in love and heading towards marriage. Then Chuck's plane to Malaysia crashes at sea during a terrible storm. He's the only survivor, and finds himself marooned on a desolate island. With no way to escape, Chuck must find ways to survive in his new home.","video":false,"vote_average":7.6},{"popularity":15.445,"vote_count":2736,"release_date":"2000-12-15","id":3981,"adult":false,"backdrop_path":"\/gVKrqm6k7JuHkMlbOit29t4KYCB.jpg","title":"What Women Want","genre_ids":[35,10749],"original_language":"en","original_title":"What Women Want","poster_path":"\/5lFtjDKqri2YxYbUbWVc0KTQ9OA.jpg","overview":"Advertising executive Nick Marshall is as cocky as they come, but what happens to a chauvinistic guy when he can suddenly hear what women are thinking? Nick gets passed over for a promotion, but after an accident enables him to hear women's thoughts, he puts his newfound talent to work against Darcy, his new boss, who seems to be infatuated with him.","video":false,"vote_average":6.4},{"popularity":30.145,"vote_count":1652,"release_date":"2000-05-19","id":10567,"adult":false,"backdrop_path":"\/laeEtakR2pLKu3CeRwB2lU5Y53X.jpg","title":"Dinosaur","genre_ids":[16,10751],"original_language":"en","original_title":"Dinosaur","poster_path":"\/rSje3FS7ycJSglowlngjsvDt7vO.jpg","overview":"An orphaned dinosaur raised by lemurs joins an arduous trek to a sancturary after a meteorite shower destroys his family home.","video":false,"vote_average":6.4},{"popularity":68.077,"overview":"Inside a snowflake exists the magical land of Whoville. In Whoville, live the Whos, an almost mutated sort of Munchkin-like people. All the Whos love Christmas, yet just outside of their beloved Whoville lives the Grinch. The Grinch is a nasty creature that hates Christmas, and plots to steal it away from the Whos, whom he equally abhors. Yet a small child, Cindy Lou Who, decides to try befriending the Grinch.","release_date":"2000-11-17","id":8871,"adult":false,"backdrop_path":"\/4dtbvoAaqiM3fVwzdffLxUdAiY6.jpg","title":"How the Grinch Stole Christmas","genre_ids":[10751,35,14],"original_language":"en","original_title":"How the Grinch Stole Christmas","poster_path":"\/6B7cxxn1A4zqFFmJC3iT99GDWWm.jpg","vote_count":4768,"video":false,"vote_average":6.7},{"popularity":18.719,"vote_count":4221,"release_date":"2000-10-06","id":1597,"adult":false,"backdrop_path":"\/s1fDAwf6a3TxewcKJgj16pcegzZ.jpg","title":"Meet the Parents","genre_ids":[35,10749],"original_language":"en","original_title":"Meet the Parents","poster_path":"\/jX9D6uVaYFZIwFMfD3pEPp4Lu6u.jpg","overview":"Greg Focker is ready to marry his girlfriend, Pam, but before he pops the question, he must win over her formidable father, humorless former CIA agent Jack Byrnes, at the wedding of Pam's sister. As Greg bends over backward to make a good impression, his visit to the Byrnes home turns into a hilarious series of disasters, and everything that can go wrong does, all under Jack's critical, hawklike gaze.","video":false,"vote_average":6.6},{"popularity":12.794,"overview":"In October 1991, a confluence of weather conditions combined to form a killer storm in the North Atlantic. Caught in the storm was the sword-fishing boat Andrea Gail. Magnificent foreshadowing and anticipation fill this true-life drama while minute details of the fishing boats, their gear and the weather are juxtaposed with the sea adventure.","release_date":"2000-06-26","id":2133,"adult":false,"backdrop_path":"\/sFq1UFM6R81kKVuKRm7Pj4JBwRx.jpg","title":"The Perfect Storm","genre_ids":[18],"original_language":"en","original_title":"The Perfect Storm","poster_path":"\/vJPoxqgpfFNbGi0HyoNsjFeLCio.jpg","vote_count":1455,"video":false,"vote_average":6.4},{"popularity":3.385,"vote_count":26,"release_date":"2000-12-06","id":44947,"adult":false,"backdrop_path":null,"title":"The King Is Dancing","genre_ids":[18,36,10402],"original_language":"fr","original_title":"Le Roi Danse","poster_path":"\/5jNAISxwiMYpAyfFlkpx9QhR7EJ.jpg","overview":"Louis XIV, the French sun-king has two passions, establishing absolute rule over the realm -after decades of religious\/civil wars- by divine right and artistic brilliancy as a dancer","video":false,"vote_average":6.8},{"popularity":1.761,"vote_count":8326,"release_date":"2000-07-13","id":36657,"adult":false,"backdrop_path":"\/a6MwSrIKmMjs5b8os7eEgQk05yx.jpg","title":"X-Men","genre_ids":[12,28,878],"original_language":"en","original_title":"X-Men","poster_path":"\/hkoAUNLa0lOQ11apLUJ6Oh1EWID.jpg","overview":"Two mutants, Rogue and Wolverine, come to a private academy for their kind whose resident superhero team, the X-Men, must oppose a terrorist organization with similar powers.","video":false,"vote_average":7},{"popularity":14.517,"vote_count":1201,"release_date":"2000-07-21","id":2655,"adult":false,"backdrop_path":"\/qvMbGkEv9mVTPZpVPkrhpXrpv9E.jpg","title":"What Lies Beneath","genre_ids":[18,27,9648,53],"original_language":"en","original_title":"What Lies Beneath","poster_path":"\/2L3Cn0CizbSy2E9KJt1SiOSyb6p.jpg","overview":"When Claire Spencer starts hearing ghostly voices and seeing spooky images, she wonders if an otherworldly spirit is trying to contact her. All the while, her husband tries to reassure her by telling her it's all in her head. But as Claire investigates, she discovers that the man she loves might know more than he's letting on.","video":false,"vote_average":6.4},{"popularity":48.541,"vote_count":4521,"release_date":"2000-07-07","id":4247,"adult":false,"backdrop_path":"\/7nXYjP2337JzIAlpgWP6SYGviUg.jpg","title":"Scary Movie","genre_ids":[35],"original_language":"en","original_title":"Scary Movie","poster_path":"\/lRQiJXETkCnVVurHmglNvMXrZOx.jpg","overview":"Following on the heels of popular teen-scream horror movies, with uproarious comedy and biting satire. Marlon and Shawn Wayans, Shannon Elizabeth and Carmen Electra pitch in to skewer some of Hollywood's biggest blockbusters, including Scream, I Know What You Did Last Summer, The Matrix, American Pie and The Blair Witch Project.","video":false,"vote_average":6.3},{"popularity":24.327,"vote_count":2994,"release_date":"2000-11-02","id":4327,"adult":false,"backdrop_path":"\/oq3IOr7QvEmei0eXsXacqaMPqlV.jpg","title":"Charlie's Angels","genre_ids":[28,12,35,80,53],"original_language":"en","original_title":"Charlie's Angels","poster_path":"\/paDTaHGLxhacythNZCT86VPanm6.jpg","overview":"Three women, detectives with a mysterious boss, retrieve stolen voice-ID software, using martial arts, tech skills, and sex appeal.","video":false,"vote_average":5.8},{"popularity":10.609,"vote_count":2011,"release_date":"2000-03-17","id":462,"adult":false,"backdrop_path":"\/3HmLKhahTxX2ALTWlagr92pZrU7.jpg","title":"Erin Brockovich","genre_ids":[18],"original_language":"en","original_title":"Erin Brockovich","poster_path":"\/5GAUaXxC7chmHzXiB4L1nnplx9y.jpg","overview":"A twice-divorced mother of three who sees an injustice, takes on the bad guy and wins -- with a little help from her push-up bra. Erin goes to work for an attorney and comes across medical records describing illnesses clustered in one nearby town. She starts investigating and soon exposes a monumental cover-up.","video":false,"vote_average":7.4},{"popularity":22.566,"vote_count":6626,"release_date":"2000-11-22","id":9741,"adult":false,"backdrop_path":"\/kxXPepFUn59WY2LU9mgxpil9i6c.jpg","title":"Unbreakable","genre_ids":[53,18,9648],"original_language":"en","original_title":"Unbreakable","poster_path":"\/d1poWPWvhO0n05xKGTqAjNN37qC.jpg","overview":"An ordinary man makes an extraordinary discovery when a train accident leaves his fellow passengers dead — and him unscathed. The answer to this mystery could lie with the mysterious Elijah Price, a man who suffers from a disease that renders his bones as fragile as glass.","video":false,"vote_average":7.1},{"popularity":23.766,"vote_count":2997,"release_date":"2000-06-09","id":9679,"adult":false,"backdrop_path":"\/2HsG1EfJ8h8oVK3xTm0YxrKnErr.jpg","title":"Gone in Sixty Seconds","genre_ids":[28,80,53],"original_language":"en","original_title":"Gone in Sixty Seconds","poster_path":"\/lFsJJjnGcNhewSIM9XBTaHsI2et.jpg","overview":"Upon learning that he has to come out of retirement to steal 50 cars in one night to save his brother Kip's life, former car thief Randall \"Memphis\" Raines enlists help from a few \"boost happy\" pals to accomplish a seemingly impossible feat. From countless car chases to relentless cops, the high-octane excitement builds as Randall swerves around more than a few roadblocks to keep Kip alive.","video":false,"vote_average":6.3},{"popularity":26.982,"overview":"Having been hopelessly repressed and facing eventual certain death at the British chicken farm where they are held, Ginger the chicken along with the help of Rocky the American rooster decide to rebel and lead their fellow chickens in a great escape from the murderous farmers Mr. and Mrs. Tweedy and their farm of doom.","release_date":"2000-06-21","id":7443,"adult":false,"backdrop_path":"\/e8fwYYDYmcht3YHIK6eTO4VfYPU.jpg","title":"Chicken Run","genre_ids":[16,35,10751],"original_language":"en","original_title":"Chicken Run","poster_path":"\/8XgmIsbpVamdhwcNVsYzohFZTtT.jpg","vote_count":3414,"video":false,"vote_average":6.7},{"popularity":13.441,"vote_count":650,"release_date":"2000-12-08","id":11678,"adult":false,"backdrop_path":"\/gPMYhwogEWMeUWqL0JJkSuwcafk.jpg","title":"Vertical Limit","genre_ids":[28,53,18,12],"original_language":"en","original_title":"Vertical Limit","poster_path":"\/kpqQUEi8eAyYHMDFACf6YlnPIu7.jpg","overview":"Trapped near the summit of K2, the world's second-highest mountain, Annie Garrett radios to base camp for help. Brother Peter hears Annie's message and assembles a team to save her and her group before they succumb to K2's unforgiving elements. But, as Annie lays injured in an icy cavern, the rescuers face several terrifying events that could end the rescue attempt -- and their lives.","video":false,"vote_average":5.9},{"popularity":16.815,"vote_count":2573,"release_date":"2000-06-28","id":2024,"adult":false,"backdrop_path":"\/c9xSFZQtC4c16Vn5CMOaB1pGk9J.jpg","title":"The Patriot","genre_ids":[18,36,10752,28],"original_language":"en","original_title":"The Patriot","poster_path":"\/fWZd815QxUCUcrWQZwUkAp9ljG.jpg","overview":"After proving himself on the field of battle in the French and Indian War, Benjamin Martin wants nothing more to do with such things, preferring the simple life of a farmer. But when his son Gabriel enlists in the army to defend their new nation, America, against the British, Benjamin reluctantly returns to his old life to protect his son.","video":false,"vote_average":7.1},{"popularity":17.388,"overview":"Two warriors in pursuit of a stolen sword and a notorious fugitive are led to an impetuous, physically-skilled, teenage nobleman's daughter, who is at a crossroads in her life.","release_date":"2000-07-06","id":146,"adult":false,"backdrop_path":"\/sAgcj4Htn6SQaoEj5yiJes0TBcB.jpg","title":"Crouching Tiger, Hidden Dragon","genre_ids":[12,18,28,10749],"original_language":"zh","original_title":"卧虎藏龙","poster_path":"\/tKqJ6yWtOnTbiA2uzac2gejDqpI.jpg","vote_count":2059,"video":false,"vote_average":7.3}],"total_results":5275,"page":1,"total_pages":264}