{"total_results":8018,"page":1,"total_pages":401,"results":[{"video":false,"vote_average":7.1,"popularity":67.979,"vote_count":8248,"release_date":"2004-05-19","adult":false,"backdrop_path":"\/b33E34IywGC4NWYY3G1ck7uehNF.jpg","id":809,"genre_ids":[16,10751,35,14,12],"overview":"Shrek, Fiona and Donkey set off to Far, Far Away to meet Fiona's mother and father. But not everyone is happy. Shrek and the King find it hard to get along, and there's tension in the marriage. The fairy godmother discovers that Shrek has married Fiona instead of her Son Prince Charming and sets about destroying their marriage.","original_language":"en","original_title":"Shrek 2","poster_path":"\/oljiDFPyMY437BRRV69AzVDSiKy.jpg","title":"Shrek 2"},{"title":"Harry Potter and the Prisoner of Azkaban","vote_average":8,"popularity":101.81,"vote_count":15087,"release_date":"2004-05-31","adult":false,"backdrop_path":"\/vbk5CfaAHOjQPSAcYm6AoRRz2Af.jpg","id":673,"genre_ids":[12,14],"video":false,"original_language":"en","original_title":"Harry Potter and the Prisoner of Azkaban","poster_path":"\/v0wMKEEGaNc9evdqGYfIvoWXh24.jpg","overview":"Harry, Ron and Hermione return to Hogwarts for another magic-filled year. Harry comes face to face with danger yet again, this time in the form of escaped convict, Sirius Black—and turns to sympathetic Professor Lupin for help."},{"video":false,"vote_average":7.1,"popularity":23.379,"vote_count":10197,"release_date":"2004-06-25","adult":false,"backdrop_path":"\/vqZnytUpDDAZI6JU7WtCqdq84L.jpg","id":558,"genre_ids":[28,12,14],"overview":"Peter Parker is going through a major identity crisis. Burned out from being Spider-Man, he decides to shelve his superhero alter ego, which leaves the city suffering in the wake of carnage left by the evil Doc Ock. In the meantime, Parker still can't act on his feelings for Mary Jane Watson, a girl he's loved since childhood.","original_language":"en","original_title":"Spider-Man 2","poster_path":"\/olxpyq9kJAZ2NU1siLshhhXEPR7.jpg","title":"Spider-Man 2"},{"video":false,"vote_average":7.7,"popularity":37.263,"vote_count":13208,"release_date":"2004-11-05","adult":false,"backdrop_path":"\/7bQNyDNvnBMAkRw5Hq9An0CUh0r.jpg","id":9806,"genre_ids":[28,12,16,10751],"overview":"Bob Parr has given up his superhero days to log in time as an insurance adjuster and raise his three children with his formerly heroic wife in suburbia. But when he receives a mysterious assignment, it's time to get back into costume.","original_language":"en","original_title":"The Incredibles","poster_path":"\/2LqaLgk4Z226KkgPJuiOQ58wvrm.jpg","title":"The Incredibles"},{"video":false,"vote_average":7.3,"popularity":39.057,"vote_count":2675,"release_date":"2004-02-25","adult":false,"backdrop_path":"\/zClTES0uTBpaYv2hlInr9IM2ZC4.jpg","id":615,"genre_ids":[18],"overview":"A graphic portrayal of the last twelve hours of Jesus of Nazareth's life.","original_language":"en","original_title":"The Passion of the Christ","poster_path":"\/4l9LCSOfEJ0vSY9D6kpH2OVfk0j.jpg","title":"The Passion of the Christ"},{"video":false,"vote_average":6.4,"popularity":22.298,"vote_count":5582,"release_date":"2004-05-26","adult":false,"backdrop_path":"\/smqQ71MIn1DSdSiQzCzCOV6rgRq.jpg","id":435,"genre_ids":[28,12,878,53],"overview":"After years of increases in the greenhouse effect,  havoc is wreaked globally in the form of catastrophic hurricanes, tornadoes, tidal waves, floods and the beginning of a new Ice Age. Paleoclimatologist, Jack Hall tries to warn the world while also shepherding to safety his son, trapped in New York after the city is overwhelmed by the start of the new big freeze.","original_language":"en","original_title":"The Day After Tomorrow","poster_path":"\/mr1GBm0CXFA2lBKvl4voCYfkfL0.jpg","title":"The Day After Tomorrow"},{"video":false,"vote_average":6.2,"popularity":14.252,"vote_count":3411,"release_date":"2004-12-22","adult":false,"backdrop_path":"\/hVJnECWotRdjiDExoo5VgEmSNMx.jpg","id":693,"genre_ids":[35,10749],"overview":"Hard-to-crack ex-CIA man, Jack Byrnes and his wife, Dina head for the warmer climes of Florida to meet son-in-law-to-be, Greg Focker's parents. Unlike their happily matched offspring, the future in-laws find themselves in a situation of opposites that definitely do not attract.","original_language":"en","original_title":"Meet the Fockers","poster_path":"\/1kkx1qEmMOmBdPbJDoQDRmmCzlE.jpg","title":"Meet the Fockers"},{"title":"Troy","vote_average":7.1,"popularity":40.222,"overview":"In year 1250 B.C. during the late Bronze age, two emerging nations begin to clash. Paris, the Trojan prince, convinces Helen, Queen of Sparta, to leave her husband Menelaus, and sail with him back to Troy. After Menelaus finds out that his wife was taken by the Trojans, he asks his brother Agamemnom to help him get her back. Agamemnon sees this as an opportunity for power. So they set off with 1,000 ships holding 50,000 Greeks to Troy. With the help of Achilles, the Greeks are able to fight the never before defeated Trojans.","release_date":"2004-05-03","adult":false,"backdrop_path":"\/wEmexPKgF2sgYvvl6MxI5rTn2qM.jpg","id":652,"genre_ids":[12,36],"vote_count":7163,"original_language":"en","original_title":"Troy","poster_path":"\/kWj4RJzZeJGeyGA3DVGQiNkUjkt.jpg","video":false},{"video":false,"vote_average":6,"popularity":31.861,"vote_count":4760,"release_date":"2004-09-20","adult":false,"backdrop_path":"\/z1oPj03g6b9F5VyUTyQMp7IJ7Y9.jpg","id":10555,"genre_ids":[16,28,35,10751],"overview":"Oscar is a small fish whose big aspirations often get him into trouble. Meanwhile, Lenny is a great white shark with a surprising secret that no sea creature would guess: He's a vegetarian. When a lie turns Oscar into an improbable hero and Lenny becomes an outcast, the two form an unlikely friendship.","original_language":"en","original_title":"Shark Tale","poster_path":"\/r08DpyPyhXcJTfNZAICNGMzcQ8l.jpg","title":"Shark Tale"},{"video":false,"vote_average":6.5,"popularity":26.475,"vote_count":5150,"release_date":"2004-12-09","adult":false,"backdrop_path":"\/3guCfwRt3MrmO6q56I4F5xN1LYB.jpg","id":163,"genre_ids":[53,80],"overview":"Danny Ocean reunites with his old flame and the rest of his merry band of thieves in carrying out three huge heists in Rome, Paris and Amsterdam – but a Europol agent is hot on their heels.","original_language":"en","original_title":"Ocean's Twelve","poster_path":"\/4y8WH1lIpXp0qxUWkYmObhuMRIU.jpg","title":"Ocean's Twelve"},{"video":false,"vote_average":6.6,"popularity":20.905,"vote_count":4477,"release_date":"2004-11-19","adult":false,"backdrop_path":"\/yWJ8444QvMrpvPOEqcNCv0FDflG.jpg","id":2059,"genre_ids":[12,28,53,9648],"overview":"Modern treasure hunters, led by archaeologist Ben Gates, search for a chest of riches rumored to have been stashed away by George Washington, Thomas Jefferson and Benjamin Franklin during the Revolutionary War. The chest's whereabouts may lie in secret clues embedded in the Constitution and the Declaration of Independence, and Gates is in a race to find the gold before his enemies do.","original_language":"en","original_title":"National Treasure","poster_path":"\/20MSnfTICmwvAs2YJTqcSTjwBDc.jpg","title":"National Treasure"},{"video":false,"vote_average":6.9,"popularity":24.884,"vote_count":8694,"release_date":"2004-07-15","adult":false,"backdrop_path":"\/lOXVbF2mBK0xUt8sLInF3TIk5YS.jpg","id":2048,"genre_ids":[28,878],"overview":"In 2035, where robots are common-place and abide by the three laws of robotics, a techno-phobic cop investigates an apparent suicide. Suspecting that a robot may be responsible for the death, his investigation leads him to believe that humanity may be in danger.","original_language":"en","original_title":"I, Robot","poster_path":"\/dlb6JKYv25rJSk2n2hwhOeJ7Dk.jpg","title":"I, Robot"},{"video":false,"vote_average":6.7,"popularity":47.115,"vote_count":4195,"release_date":"2004-11-10","adult":false,"backdrop_path":"\/vQuIi5iOCN3V6yg7nbP5HUiVnpK.jpg","id":5255,"genre_ids":[12,16,35,14,10751],"overview":"When a doubting young boy takes an extraordinary train ride to the North Pole, he embarks on a journey of self-discovery that shows him that the wonder of life never fades for those who believe.","original_language":"en","original_title":"The Polar Express","poster_path":"\/hc2NFfInDrOiIgIy8TTjEZTvSkz.jpg","title":"The Polar Express"},{"title":"Van Helsing","vote_average":6.3,"popularity":26.275,"overview":"Famed monster slayer Gabriel Van Helsing is dispatched to Transylvania to assist the last of the Valerious bloodline in defeating Count Dracula. Anna Valerious reveals that Dracula has formed an unholy alliance with Dr. Frankenstein's monster and is hell-bent on exacting a centuries-old curse on her family.","release_date":"2004-05-05","adult":false,"backdrop_path":"\/d72ROyJqXQtw2OupW0l15eicRAF.jpg","id":7131,"genre_ids":[27,12,28],"vote_count":4065,"original_language":"en","original_title":"Van Helsing","poster_path":"\/gsFun8nATm52aGHeT8ueAel98nE.jpg","video":false},{"video":false,"vote_average":7.3,"popularity":27.117,"vote_count":5369,"release_date":"2004-07-23","adult":false,"backdrop_path":"\/fE7RqvVHbGHjBC9NjIjlLh2t4zK.jpg","id":2502,"genre_ids":[28,18,53],"overview":"When a CIA operation to purchase classified Russian documents is blown by a rival agent, who then shows up in the sleepy seaside village where Bourne and Marie have been living. The pair run for their lives and Bourne, who promised retaliation should anyone from his former life attempt contact, is forced to once again take up his life as a trained assassin to survive.","original_language":"en","original_title":"The Bourne Supremacy","poster_path":"\/7IYGiDrquvX3q7e9PV6Pejs6b2g.jpg","title":"The Bourne Supremacy"},{"video":false,"vote_average":6.3,"popularity":12.916,"vote_count":1987,"release_date":"2004-11-10","adult":false,"backdrop_path":"\/1XKrZoWCjkzxpsQGIeoTVUTjJnC.jpg","id":9801,"genre_ids":[35,10749],"overview":"Bridget Jones is becoming uncomfortable in her relationship with Mark Darcy. Apart from discovering that he's a conservative voter, she has to deal with a new boss, a strange contractor and the worst vacation of her life.","original_language":"en","original_title":"Bridget Jones: The Edge of Reason","poster_path":"\/42v82AwTnhaL1JkNcQK8PRAh46P.jpg","title":"Bridget Jones: The Edge of Reason"},{"video":false,"vote_average":6.4,"popularity":21.002,"vote_count":2736,"release_date":"2004-07-30","adult":false,"backdrop_path":"\/kfoIyczJCpnv5c4MJahmyVOiYB2.jpg","id":6947,"genre_ids":[18,9648,53],"overview":"When a willful young man tries to venture beyond his sequestered Pennsylvania hamlet, his actions set off a chain of chilling incidents that will alter the community forever.","original_language":"en","original_title":"The Village","poster_path":"\/v7UvYtKfIVaHLaHwVgfalyrK7Ho.jpg","title":"The Village"},{"video":false,"vote_average":8.4,"popularity":42.81,"vote_count":5798,"release_date":"2004-11-19","adult":false,"backdrop_path":"\/vwBa7djy1oxfxUjc7YtVgGNsjrT.jpg","id":4935,"genre_ids":[14,16,12],"overview":"When Sophie, a shy young woman, is cursed with an old body by a spiteful witch, her only chance of breaking the spell lies with a self-indulgent yet insecure young wizard and his companions in his legged, walking castle.","original_language":"ja","original_title":"ハウルの動く城","poster_path":"\/TkTPELv4kC3u1lkloush8skOjE.jpg","title":"Howl's Moving Castle"},{"video":false,"vote_average":7.3,"popularity":14.145,"vote_count":5243,"release_date":"2004-06-17","adult":false,"backdrop_path":"\/zywtNiaZ9r7azrcNdl2j0jOgrkw.jpg","id":594,"genre_ids":[35,18],"overview":"Viktor Navorski is a man without a country; his plane took off just as a coup d'etat exploded in his homeland, leaving it in shambles, and now he's stranded at Kennedy Airport, where he's holding a passport that nobody recognizes. While quarantined in the transit lounge until authorities can figure out what to do with him, Viktor simply goes on living – and courts romance with a beautiful flight attendant.","original_language":"en","original_title":"The Terminal","poster_path":"\/vRYbjHs129MARMq1VDbnk9Jboen.jpg","title":"The Terminal"},{"video":false,"vote_average":7.2,"popularity":13.96,"vote_count":3466,"release_date":"2004-08-04","adult":false,"backdrop_path":"\/nrDDTgU0tAHVlwCQ02cUWlPGtiQ.jpg","id":1538,"genre_ids":[18,80,53],"overview":"Cab driver Max picks up a man who offers him $600 to drive him around. But the promise of easy money sours when Max realizes his fare is an assassin.","original_language":"en","original_title":"Collateral","poster_path":"\/gwVx0LN5pzZXVVqbhiBnoJKaP81.jpg","title":"Collateral"}]}