{"total_results":10000,"page":1,"total_pages":500,"results":[{"video":false,"vote_average":7.8,"popularity":45.934,"vote_count":10822,"release_date":"2010-06-16","adult":false,"backdrop_path":"\/wE5JGzujfvDPMIfFjJyrhXFjZLc.jpg","id":10193,"genre_ids":[16,10751,35],"overview":"Woody, Buzz, and the rest of Andy's toys haven't been played with in years. With Andy about to go to college, the gang find themselves accidentally left at a nefarious day care center. The toys must band together to escape and return home to Andy.","original_language":"en","original_title":"Toy Story 3","poster_path":"\/4cpGytCB0eqvRks4FAlJoUJiFPG.jpg","title":"Toy Story 3"},{"video":false,"vote_average":6.6,"popularity":29.194,"vote_count":10741,"release_date":"2010-03-03","adult":false,"backdrop_path":"\/20pkC7yJdCV4J1IMKfsCT9QU7zV.jpg","id":12155,"genre_ids":[10751,14,12],"overview":"Alice, an unpretentious and individual 19-year-old, is betrothed to a dunce of an English nobleman. At her engagement party, she escapes the crowd to consider whether to go through with the marriage and falls down a hole in the garden after spotting an unusual rabbit. Arriving in a strange and surreal place called 'Underland,' she finds herself in a world that resembles the nightmares she had as a child, filled with talking animals, villainous queens and knights, and frumious bandersnatches. Alice realizes that she is there for a reason – to conquer the horrific Jabberwocky and restore the rightful queen to her throne.","original_language":"en","original_title":"Alice in Wonderland","poster_path":"\/o0kre9wRCZz3jjSjaru7QU0UtFz.jpg","title":"Alice in Wonderland"},{"title":"Harry Potter and the Deathly Hallows: Part 1","vote_average":7.8,"popularity":84.659,"vote_count":13675,"release_date":"2010-10-17","adult":false,"backdrop_path":"\/39kg1yGt9qxPwMuG1a5ysfe3gfG.jpg","id":12444,"genre_ids":[12,14],"overview":"Harry, Ron and Hermione walk away from their last year at Hogwarts to find and destroy the remaining Horcruxes, putting an end to Voldemort's bid for immortality. But with Harry's beloved Dumbledore dead and Voldemort's unscrupulous Death Eaters on the loose, the world is more dangerous than ever.","original_language":"en","original_title":"Harry Potter and the Deathly Hallows: Part 1","poster_path":"\/iGoXIpQb7Pot00EEdwpwPajheZ5.jpg","video":false},{"video":false,"vote_average":8.3,"popularity":57.533,"vote_count":27652,"release_date":"2010-07-15","adult":false,"backdrop_path":"\/s3TBrRGB1iav7gFOCNx3H31MoES.jpg","id":27205,"genre_ids":[28,878,12],"overview":"Cobb, a skilled thief who commits corporate espionage by infiltrating the subconscious of his targets is offered a chance to regain his old life as payment for a task considered to be impossible: \"inception\", the implantation of another person's idea into a target's subconscious.","original_language":"en","original_title":"Inception","poster_path":"\/9gk7adHYeDvHkCSEqAvQNLV5Uge.jpg","title":"Inception"},{"title":"Shrek Forever After","vote_average":6.2,"popularity":56.249,"overview":"A bored and domesticated Shrek pacts with deal-maker Rumpelstiltskin to get back to feeling like a real ogre again, but when he's duped and sent to a twisted version of Far Far Away—where Rumpelstiltskin is king, ogres are hunted, and he and Fiona have never met—he sets out to restore his world and reclaim his true love.","release_date":"2010-05-16","adult":false,"backdrop_path":"\/6SOTgqVw53ZoOpHEZ7T457c4Ixz.jpg","id":10192,"genre_ids":[35,12,14,16,10751],"vote_count":5018,"original_language":"en","original_title":"Shrek Forever After","poster_path":"\/6HrfPZtKcGmX2tUWW3cnciZTaSD.jpg","video":false},{"video":false,"vote_average":6.2,"popularity":67.672,"vote_count":6450,"release_date":"2010-06-23","adult":false,"backdrop_path":"\/yiWfT2Bl1Nul3Xie39Ahs3FqSjA.jpg","id":24021,"genre_ids":[12,14,18,10749],"overview":"Bella once again finds herself surrounded by danger as Seattle is ravaged by a string of mysterious killings and a malicious vampire continues her quest for revenge. In the midst of it all, she is forced to choose between her love for Edward and her friendship with Jacob, knowing that her decision has the potential to ignite the ageless struggle between vampire and werewolf. With her graduation quickly approaching, Bella is confronted with the most important decision of her life.","original_language":"en","original_title":"The Twilight Saga: Eclipse","poster_path":"\/sOpCY4by0bkEu9LbVXVCOpWWKzF.jpg","title":"The Twilight Saga: Eclipse"},{"video":false,"vote_average":6.8,"popularity":58.685,"vote_count":15183,"release_date":"2010-04-28","adult":false,"backdrop_path":"\/jesRqfL9v6HNnowe795xjmuKUXl.jpg","id":10138,"genre_ids":[12,28,878],"overview":"With the world now aware of his dual life as the armored superhero Iron Man, billionaire inventor Tony Stark faces pressure from the government, the press and the public to share his technology with the military. Unwilling to let go of his invention, Stark, with Pepper Potts and James 'Rhodey' Rhodes at his side, must forge new alliances – and confront powerful enemies.","original_language":"en","original_title":"Iron Man 2","poster_path":"\/6WBeq4fCfn7AN0o21W9qNcRF2l9.jpg","title":"Iron Man 2"},{"video":false,"vote_average":7.6,"popularity":51.224,"vote_count":8131,"release_date":"2010-11-24","adult":false,"backdrop_path":"\/rXLw50QWqJVkQQ47Ic6M8bqWNU5.jpg","id":38757,"genre_ids":[16,10751],"overview":"When the kingdom's most wanted-and most charming-bandit Flynn Rider hides out in a mysterious tower, he's taken hostage by Rapunzel, a beautiful and feisty tower-bound teen with 70 feet of magical, golden hair. Flynn's curious captor, who's looking for her ticket out of the tower where she's been locked away for years, strikes a deal with the handsome thief and the unlikely duo sets off on an action-packed escapade, complete with a super-cop horse, an over-protective chameleon and a gruff gang of pub thugs.","original_language":"en","original_title":"Tangled","poster_path":"\/ym7Kst6a4uodryxqbGOxmewF235.jpg","title":"Tangled"},{"title":"Despicable Me","vote_average":7.2,"popularity":35.311,"overview":"Villainous Gru lives up to his reputation as a despicable, deplorable and downright unlikable guy when he hatches a plan to steal the moon from the sky. But he has a tough time staying on task after three orphans land in his care.","release_date":"2010-07-08","adult":false,"backdrop_path":"\/lM5t48wTB2qk1c15UVQXzsGFs7t.jpg","id":20352,"genre_ids":[16,10751,35],"vote_count":11784,"original_language":"en","original_title":"Despicable Me","poster_path":"\/wqtH95Ri9Au2euC4p86lLoFCJQk.jpg","video":false},{"title":"How to Train Your Dragon","vote_average":7.8,"popularity":46.344,"overview":"As the son of a Viking leader on the cusp of manhood, shy Hiccup Horrendous Haddock III faces a rite of passage: he must kill a dragon to prove his warrior mettle. But after downing a feared dragon, he realizes that he no longer wants to destroy it, and instead befriends the beast – which he names Toothless – much to the chagrin of his warrior father","release_date":"2010-03-10","adult":false,"backdrop_path":"\/kxklJL1v8MYEU5xdU6W5VvmBwVz.jpg","id":10191,"genre_ids":[14,12,16,10751],"vote_count":9506,"original_language":"en","original_title":"How to Train Your Dragon","poster_path":"\/ygGmAO60t8GyqUo9xYeYxSZAR3b.jpg","video":false},{"video":false,"vote_average":5.8,"popularity":32.274,"vote_count":4597,"release_date":"2010-04-01","adult":false,"backdrop_path":"\/6cRukOzzqAo2El0wn3F5RDZIoyp.jpg","id":18823,"genre_ids":[28,12,14],"overview":"Born of a god but raised as a man, Perseus is helpless to save his family from Hades, vengeful god of the underworld. With nothing to lose, Perseus volunteers to lead a dangerous mission to defeat Hades before he can seize power from Zeus and unleash hell on earth. Battling unholy demons and fearsome beasts, Perseus and his warriors will only survive if Perseus accepts his power as a god, defies fate and creates his own destiny.","original_language":"en","original_title":"Clash of the Titans","poster_path":"\/nzaolaRSo8ZIGjxnX89PEnpROae.jpg","title":"Clash of the Titans"},{"video":false,"vote_average":6.4,"popularity":27.287,"vote_count":4114,"release_date":"2010-12-02","adult":false,"backdrop_path":"\/sScP5gPU8NqJXko7eMRKhBbbnwl.jpg","id":10140,"genre_ids":[12,14,10751],"overview":"This time around Edmund and Lucy Pevensie, along with their pesky cousin Eustace Scrubb find themselves swallowed into a painting and on to a fantastic Narnian ship headed for the very edges of the world.","original_language":"en","original_title":"The Chronicles of Narnia: The Voyage of the Dawn Treader","poster_path":"\/pP27zlm9yeKrCeDZLFLP2HKELot.jpg","title":"The Chronicles of Narnia: The Voyage of the Dawn Treader"},{"title":"The King's Speech","vote_average":7.7,"popularity":14.233,"overview":"The King's Speech tells the story of the man who became King George VI, the father of Queen Elizabeth II. After his brother abdicates, George ('Bertie') reluctantly assumes the throne. Plagued by a dreaded stutter and considered unfit to be king, Bertie engages the help of an unorthodox speech therapist named Lionel Logue. Through a set of unexpected techniques, and as a result of an unlikely friendship, Bertie is able to find his voice and boldly lead the country into war.","release_date":"2010-09-06","adult":false,"backdrop_path":"\/5eb7l7AE2yU0mvb38fR5qLNhDDH.jpg","id":45269,"genre_ids":[18,36],"vote_count":6398,"original_language":"en","original_title":"The King's Speech","poster_path":"\/uQ538BfYLDJh3GXlzRZLo0j7PFj.jpg","video":false},{"video":false,"vote_average":6.4,"popularity":25.6,"vote_count":5261,"release_date":"2010-12-10","adult":false,"backdrop_path":"\/m2e2VNe5VCLT4sUeX2aQP5PMyEH.jpg","id":20526,"genre_ids":[12,28,878],"overview":"Sam Flynn, the tech-savvy and daring son of Kevin Flynn, investigates his father's disappearance and is pulled into The Grid. With the help of a mysterious program named Quorra, Sam quests to stop evil dictator Clu from crossing into the real world.","original_language":"en","original_title":"TRON: Legacy","poster_path":"\/vuifSABRpSnxCAOxEnWpNbZSXpp.jpg","title":"TRON: Legacy"},{"video":false,"vote_average":6.4,"popularity":48.185,"vote_count":4117,"release_date":"2010-06-10","adult":false,"backdrop_path":"\/y2Cl2LBYaabgtSLlOa4VqnOiNin.jpg","id":38575,"genre_ids":[28,12,18,10751],"overview":"Twelve-year-old Dre Parker could have been the most popular kid in Detroit, but his mother's latest career move has landed him in China. Dre immediately falls for his classmate Mei Ying but the cultural differences make such a friendship impossible. Even worse, Dre's feelings make him an enemy of the class bully, Cheng. With no friends in a strange land, Dre has nowhere to turn but maintenance man Mr. Han, who is a kung fu master. As Han teaches Dre that kung fu is not about punches and parries, but maturity and calm, Dre realizes that facing down the bullies will be the fight of his life.","original_language":"en","original_title":"The Karate Kid","poster_path":"\/tAMQREOoztvluqrfHiGHFVfB04B.jpg","title":"The Karate Kid"},{"video":false,"vote_average":6.7,"popularity":7.226,"vote_count":29,"release_date":"2010-08-24","adult":false,"backdrop_path":null,"id":43956,"genre_ids":[12,16,35,10751],"overview":"Tom and Jerry need to learn to work together in order to help Sherlock Holmes with an investigation of a jewel theft. But still, they are cat and mouse!","original_language":"en","original_title":"Tom and Jerry Meet Sherlock Holmes","poster_path":"\/8TAd3Cky2D8dHzWIirna1IHa2N3.jpg","title":"Tom and Jerry Meet Sherlock Holmes"},{"video":false,"vote_average":6.2,"popularity":17.98,"vote_count":5067,"release_date":"2010-05-19","adult":false,"backdrop_path":"\/is8UPs1kyGTDX28BQ7z5lsGj93p.jpg","id":9543,"genre_ids":[12,14,28],"overview":"A rogue prince reluctantly joins forces with a mysterious princess and together, they race against dark forces to safeguard an ancient dagger capable of releasing the Sands of Time – gift from the gods that can reverse time and allow its possessor to rule the world.","original_language":"en","original_title":"Prince of Persia: The Sands of Time","poster_path":"\/lkp1GFmWyf7k2WKvKIQuuGyichI.jpg","title":"Prince of Persia: The Sands of Time"},{"title":"Black Swan","vote_average":7.6,"popularity":20.954,"overview":"A journey through the psyche of a young ballerina whose starring role as the duplicitous swan queen turns out to be a part for which she becomes frighteningly perfect.","release_date":"2010-12-03","adult":false,"backdrop_path":"\/dve5Q9HhS1bhLHlJSBjX6cLBBEk.jpg","id":44214,"genre_ids":[18,53,27],"vote_count":10561,"original_language":"en","original_title":"Black Swan","poster_path":"\/rH19vkjAzCZ0HIUvrgB3rowm68h.jpg","video":false},{"title":"Megamind","vote_average":6.9,"popularity":31.068,"overview":"Bumbling supervillain Megamind finally defeats his nemesis, the superhero Metro Man. But without a hero, he loses all purpose and must find new meaning to his life.","release_date":"2010-10-28","adult":false,"backdrop_path":"\/irpJXGiVr539uuspcQcNdkhS2lq.jpg","id":38055,"genre_ids":[16,28,35,10751,878],"vote_count":4707,"original_language":"en","original_title":"Megamind","poster_path":"\/7l5OY9oeJyaB2XJKrg0du7pmi1C.jpg","video":false},{"video":false,"vote_average":6.4,"popularity":18.103,"vote_count":3251,"release_date":"2010-05-12","adult":false,"backdrop_path":"\/h7AKqgIh86HDgJIzENeR2ng1Knn.jpg","id":20662,"genre_ids":[28,12,18],"overview":"When soldier Robin happens upon the dying Robert of Loxley, he promises to return the man's sword to his family in Nottingham. There, he assumes Robert's identity; romances his widow, Marion; and draws the ire of the town's sheriff and King John's henchman, Godfrey.","original_language":"en","original_title":"Robin Hood","poster_path":"\/9NS5QGOfck24yL3bZqWeW06PgPC.jpg","title":"Robin Hood"}]}