{"results":[{"popularity":89.978,"vote_count":12558,"release_date":"2013-11-27","id":109445,"adult":false,"backdrop_path":"\/fydUcbkqLyESCFa9U5XKqi8dIVj.jpg","title":"Frozen","genre_ids":[16,12,10751],"original_language":"en","original_title":"Frozen","poster_path":"\/kgwjIb2JDHRhNk13lmSxiClFjVk.jpg","overview":"Young princess Anna of Arendelle dreams about finding true love at her sister Elsa’s coronation. Fate takes her on a dangerous journey in an attempt to end the eternal winter that has fallen over the kingdom. She's accompanied by ice delivery man Kristoff, his reindeer Sven, and snowman Olaf. On an adventure where she will find out what friendship, courage, family, and true love really means.","video":false,"vote_average":7.3},{"popularity":54.86,"vote_count":16877,"release_date":"2013-04-18","id":68721,"adult":false,"backdrop_path":"\/wPgcxHNvnEEMXx94l2911gqZ4o9.jpg","title":"Iron Man 3","genre_ids":[28,12,878],"original_language":"en","original_title":"Iron Man 3","poster_path":"\/qhPtAc1TKbMPqNvcdXSOn9Bn7hZ.jpg","overview":"When Tony Stark's world is torn apart by a formidable terrorist called the Mandarin, he starts an odyssey of rebuilding and retribution.","video":false,"vote_average":6.9},{"popularity":38.988,"vote_count":8710,"release_date":"2013-06-25","id":93456,"adult":false,"backdrop_path":"\/4UvNG6JFaSzMLUXUsq62VcVjNhP.jpg","title":"Despicable Me 2","genre_ids":[16,35,10751],"original_language":"en","original_title":"Despicable Me 2","poster_path":"\/5Fh4NdoEnCjCK9wLjdJ9DJNFl2b.jpg","overview":"Gru is recruited by the Anti-Villain League to help deal with a powerful new super criminal.","video":false,"vote_average":6.9},{"popularity":40.069,"overview":"The Dwarves, Bilbo and Gandalf have successfully escaped the Misty Mountains, and Bilbo has gained the One Ring. They all continue their journey to get their gold back from the Dragon, Smaug.","release_date":"2013-12-11","id":57158,"adult":false,"backdrop_path":"\/npCPnwDyWfQltGfIZKN6WqeUXGI.jpg","title":"The Hobbit: The Desolation of Smaug","genre_ids":[12,14,28],"original_language":"en","original_title":"The Hobbit: The Desolation of Smaug","poster_path":"\/xQYiXsheRCDBA39DOrmaw1aSpbk.jpg","vote_count":9454,"video":false,"vote_average":7.6},{"popularity":41.002,"vote_count":13300,"release_date":"2013-11-15","id":101299,"adult":false,"backdrop_path":"\/omoWcwdARBsGHdMdHUk0AQhS2Lp.jpg","title":"The Hunger Games: Catching Fire","genre_ids":[12,28,878],"original_language":"en","original_title":"The Hunger Games: Catching Fire","poster_path":"\/7c1JtraYsjMMnk8Md0IMoyRzqZJ.jpg","overview":"Katniss Everdeen has returned home safe after winning the 74th Annual Hunger Games along with fellow tribute Peeta Mellark. Winning means that they must turn around and leave their family and close friends, embarking on a \"Victor's Tour\" of the districts. Along the way Katniss senses that a rebellion is simmering, but the Capitol is still very much in control as President Snow prepares the 75th Annual Hunger Games (The Quarter Quell) - a competition that could change Panem forever.","video":false,"vote_average":7.4},{"popularity":6.222,"overview":"Hobbs has Dominic and Brian reassemble their crew to take down a team of mercenaries: Dominic unexpectedly gets convoluted also facing his presumed deceased girlfriend, Letty.","release_date":"2013-05-21","id":82992,"adult":false,"backdrop_path":"\/mRfI3y2oAd7ejur2di09xC9niqp.jpg","title":"Fast & Furious 6","genre_ids":[28,53,80],"original_language":"en","original_title":"Fast & Furious 6","poster_path":"\/n31VRDodbaZxkrZmmzyYSFNVpW5.jpg","vote_count":8238,"video":false,"vote_average":6.8},{"popularity":41.767,"vote_count":7886,"release_date":"2013-06-20","id":62211,"adult":false,"backdrop_path":"\/hmAOMwVeJfdWXgK1Ikyl2eYkE99.jpg","title":"Monsters University","genre_ids":[16,10751],"original_language":"en","original_title":"Monsters University","poster_path":"\/y7thwJ7z5Bplv6vwl6RI0yteaDD.jpg","overview":"A look at the relationship between Mike and Sulley during their days at Monsters University — when they weren't necessarily the best of friends.","video":false,"vote_average":7},{"popularity":23.804,"vote_count":11800,"release_date":"2013-10-03","id":49047,"adult":false,"backdrop_path":"\/a2n6bKD7qhCPCAEALgsAhWOAQcc.jpg","title":"Gravity","genre_ids":[878,53,18],"original_language":"en","original_title":"Gravity","poster_path":"\/wmUeEacsFZzDndaeOtNNmy26rYJ.jpg","overview":"Dr. Ryan Stone, a brilliant medical engineer on her first Shuttle mission, with veteran astronaut Matt Kowalsky in command of his last flight before retiring. But on a seemingly routine spacewalk, disaster strikes. The Shuttle is destroyed, leaving Stone and Kowalsky completely alone-tethered to nothing but each other and spiraling out into the blackness of space. The deafening silence tells them they have lost any link to Earth and any chance for rescue. As fear turns to panic, every gulp of air eats away at what little oxygen is left. But the only way home may be to go further out into the terrifying expanse of space.","video":false,"vote_average":7.2},{"popularity":42.793,"vote_count":11504,"release_date":"2013-06-12","id":49521,"adult":false,"backdrop_path":"\/69EFgWWPFWbRNHmQgYdSnyJ94Ge.jpg","title":"Man of Steel","genre_ids":[28,12,14,878],"original_language":"en","original_title":"Man of Steel","poster_path":"\/7rIPjn5TUK04O25ZkMyHrGNPgLx.jpg","overview":"A young boy learns that he has extraordinary powers and is not of this earth. As a young man, he journeys to discover where he came from and what he was sent here to do. But the hero in him must emerge if he is to save the world from annihilation and become the symbol of hope for all mankind.","video":false,"vote_average":6.5},{"popularity":49.649,"vote_count":12640,"release_date":"2013-10-29","id":76338,"adult":false,"backdrop_path":"\/uhYoytlNaq46dG81wLmHqaSuzWu.jpg","title":"Thor: The Dark World","genre_ids":[28,12,14],"original_language":"en","original_title":"Thor: The Dark World","poster_path":"\/wp6OxE4poJ4G7c0U2ZIXasTSMR7.jpg","overview":"Thor fights to restore order across the cosmos… but an ancient race led by the vengeful Malekith returns to plunge the universe back into darkness. Faced with an enemy that even Odin and Asgard cannot withstand, Thor must embark on his most perilous and personal journey yet, one that will reunite him with Jane Foster and force him to sacrifice everything to save us all.","video":false,"vote_average":6.6},{"popularity":91.806,"vote_count":4957,"release_date":"2013-03-20","id":49519,"adult":false,"backdrop_path":"\/wFN8llYh215M8i2fqWAcPV8CSyL.jpg","title":"The Croods","genre_ids":[28,12,16,35,10751,14],"original_language":"en","original_title":"The Croods","poster_path":"\/27zvjVOtOi5ped1HSlJKNsKXkFH.jpg","overview":"Prehistoric family the Croods live in a particularly dangerous moment in time. Patriarch Grug, his mate, Ugga , teenage daughter Eep, son Thunk and feisty Gran gather food by day and huddle together in a cave at night. When a more evolved caveman named Guy arrives on the scene, Grug is distrustful, but it soon becomes apparent that Guy is correct about the impending destruction of their world.","video":false,"vote_average":6.9},{"popularity":48.794,"overview":"Life for former United Nations investigator Gerry Lane and his family seems content. Suddenly, the world is plagued by a mysterious infection turning whole human populations into rampaging mindless zombies. After barely escaping the chaos, Lane is persuaded to go on a mission to investigate this disease. What follows is a perilous trek around the world where Lane must brave horrific dangers and long odds to find answers before human civilization falls.","release_date":"2013-06-20","id":72190,"adult":false,"backdrop_path":"\/upsk7nfUjf8ZSYuokwa5U5YXERm.jpg","title":"World War Z","genre_ids":[28,18,27,878,53],"original_language":"en","original_title":"World War Z","poster_path":"\/1SWBSYJsnyhdNRfLI1T6RsCxAQ4.jpg","vote_count":11406,"video":false,"vote_average":6.8},{"popularity":25.897,"vote_count":5475,"release_date":"2013-03-07","id":68728,"adult":false,"backdrop_path":"\/a4KUVG5P5hBSgAgHHindbnyubTF.jpg","title":"Oz the Great and Powerful","genre_ids":[14,12,10751],"original_language":"en","original_title":"Oz the Great and Powerful","poster_path":"\/7lBgN59T5m1DaC9XcLkHOXdK9ax.jpg","overview":"Oscar Diggs, a small-time circus illusionist and con-artist, is whisked from Kansas to the Land of Oz where the inhabitants assume he's the great wizard of prophecy, there to save Oz from the clutches of evil.","video":false,"vote_average":5.9},{"popularity":23.474,"overview":"When the crew of the Enterprise is called back home, they find an unstoppable force of terror from within their own organization has detonated the fleet and everything it stands for, leaving our world in a state of crisis.  With a personal score to settle, Captain Kirk leads a manhunt to a war-zone world to capture a one man weapon of mass destruction. As our heroes are propelled into an epic chess game of life and death, love will be challenged, friendships will be torn apart, and sacrifices must be made for the only family Kirk has left: his crew.","release_date":"2013-05-05","id":54138,"adult":false,"backdrop_path":"\/1aS7a9rwrUh6RuDq2A9VowxE9os.jpg","title":"Star Trek Into Darkness","genre_ids":[28,12,878],"original_language":"en","original_title":"Star Trek Into Darkness","poster_path":"\/Aim3kVNh1MPIxPEFeJrl9e9Uf1a.jpg","vote_count":7164,"video":false,"vote_average":7.3},{"popularity":7.175,"overview":"Wolverine faces his ultimate nemesis - and tests of his physical, emotional, and mortal limits - in a life-changing voyage to modern-day Japan.","release_date":"2013-07-23","id":76170,"adult":false,"backdrop_path":"\/AqIes6H9NlRoo0YjlO7exLCu72v.jpg","title":"The Wolverine","genre_ids":[28,878,12,14],"original_language":"en","original_title":"The Wolverine","poster_path":"\/9zvDWFdc22pzq0BMcEsQaakBgPj.jpg","vote_count":7246,"video":false,"vote_average":6.4},{"popularity":60.848,"vote_count":9146,"release_date":"2013-07-11","id":68726,"adult":false,"backdrop_path":"\/ig7qUy7drkEFZNCK7gi0hMn1WMN.jpg","title":"Pacific Rim","genre_ids":[28,878,12],"original_language":"en","original_title":"Pacific Rim","poster_path":"\/mmznhaQDwlHWpUwKuNxtQiubbmM.jpg","overview":"When legions of monstrous creatures, known as Kaiju, started rising from the sea, a war began that would take millions of lives and consume humanity's resources for years on end. To combat the giant Kaiju, a special type of weapon was devised: massive robots, called Jaegers, which are controlled simultaneously by two pilots whose minds are locked in a neural bridge. But even the Jaegers are proving nearly defenseless in the face of the relentless Kaiju. On the verge of defeat, the forces defending mankind have no choice but to turn to two unlikely heroes—a washed-up former pilot (Charlie Hunnam) and an untested trainee (Rinko Kikuchi)—who are teamed to drive a legendary but seemingly obsolete Jaeger from the past. Together, they stand as mankind's last hope against the mounting apocalypse.","video":false,"vote_average":6.8},{"popularity":92.033,"vote_count":16423,"release_date":"2013-12-25","id":106646,"adult":false,"backdrop_path":"\/blbA7NEHARQOWy5i9VF5K2kHrPc.jpg","title":"The Wolf of Wall Street","genre_ids":[80,18,35],"original_language":"en","original_title":"The Wolf of Wall Street","poster_path":"\/sOxr33wnRuKazR9ClHek73T8qnK.jpg","overview":"A New York stockbroker refuses to cooperate in a large securities fraud case involving corruption on Wall Street, corporate banking world and mob infiltration. Based on Jordan Belfort's autobiography.","video":false,"vote_average":8},{"popularity":18.563,"overview":"Framed for crimes against the country, the G.I. Joe team is terminated by Presidential order. This forces the G.I. Joes into not only fighting their mortal enemy Cobra; they are forced to contend with threats from within the government that jeopardize their very existence.","release_date":"2013-03-26","id":72559,"adult":false,"backdrop_path":"\/nwGPPwwJ7M3eIeIl1Uml2JfzYrF.jpg","title":"G.I. Joe: Retaliation","genre_ids":[12,28,878,53],"original_language":"en","original_title":"G.I. Joe: Retaliation","poster_path":"\/3rWIZMzTKcCtV0eHJ70Z4Ru659f.jpg","vote_count":4389,"video":false,"vote_average":5.5},{"popularity":45.819,"vote_count":6400,"release_date":"2013-05-23","id":109439,"adult":false,"backdrop_path":"\/h2uzBumBlgIqVsQmbeNziUnRINf.jpg","title":"The Hangover Part III","genre_ids":[35],"original_language":"en","original_title":"The Hangover Part III","poster_path":"\/vtxuPWkdllLNLVyGjKYa267ntuH.jpg","overview":"This time, there's no wedding. No bachelor party. What could go wrong, right? But when the Wolfpack hits the road, all bets are off.","video":false,"vote_average":6.2},{"popularity":40.118,"vote_count":12029,"release_date":"2013-05-29","id":75656,"adult":false,"backdrop_path":"\/xEY0MV2jSQBz9iOJfCFvLTiPGMA.jpg","title":"Now You See Me","genre_ids":[53,80],"original_language":"en","original_title":"Now You See Me","poster_path":"\/tWsNYbrqy1p1w6K9zRk0mSchztT.jpg","overview":"An FBI agent and an Interpol detective track a team of illusionists who pull off bank heists during their performances and reward their audiences with the money.","video":false,"vote_average":7.4}],"total_results":10000,"page":1,"total_pages":500}