{"total_results":10000,"page":1,"total_pages":500,"results":[{"video":false,"id":140607,"popularity":74.175,"vote_count":15132,"release_date":"2015-12-15","adult":false,"backdrop_path":"\/k6EOrckWFuz7I4z4wiRwz8zsj4H.jpg","vote_average":7.4,"genre_ids":[28,12,878,14],"overview":"Thirty years after defeating the Galactic Empire, Han Solo and his allies face a new threat from the evil Kylo Ren and his army of Stormtroopers.","original_language":"en","original_title":"Star Wars: The Force Awakens","poster_path":"\/wqnLdwVXoBjKibFRR5U3y0aDUhs.jpg","title":"Star Wars: The Force Awakens"},{"video":false,"id":135397,"popularity":110.513,"vote_count":16221,"release_date":"2015-06-06","adult":false,"backdrop_path":"\/yOCRqvrRrxbs5FYq2pX1KtLJwmR.jpg","vote_average":6.6,"genre_ids":[28,12,878,53],"overview":"Twenty-two years after the events of Jurassic Park, Isla Nublar now features a fully functioning dinosaur theme park, Jurassic World, as originally envisioned by John Hammond.","original_language":"en","original_title":"Jurassic World","poster_path":"\/rhr4y79GpxQF9IsfJItRXVaoGs4.jpg","title":"Jurassic World"},{"video":false,"vote_average":7.3,"popularity":62.038,"overview":"Deckard Shaw seeks revenge against Dominic Toretto and his family for his comatose brother.","release_date":"2015-04-01","adult":false,"backdrop_path":"\/vkQvqH8WQkUiNklDcbUtHEUgSNQ.jpg","id":168259,"genre_ids":[28,53],"vote_count":7906,"original_language":"en","title":"Furious 7","poster_path":"\/ktofZ9Htrjiy0P6LEowsDaxd3Ri.jpg","original_title":"Furious 7"},{"video":false,"id":99861,"popularity":85.675,"vote_count":16826,"release_date":"2015-04-22","adult":false,"backdrop_path":"\/8i6ZDk97Vyh0jHohMG4vFeFuKJh.jpg","overview":"When Tony Stark tries to jumpstart a dormant peacekeeping program, things go awry and Earth’s Mightiest Heroes are put to the ultimate test as the fate of the planet hangs in the balance. As the villainous Ultron emerges, it is up to The Avengers to stop him from enacting his terrible plans, and soon uneasy alliances and unexpected action pave the way for an epic and unique global adventure.","genre_ids":[28,12,878],"title":"Avengers: Age of Ultron","original_language":"en","original_title":"Avengers: Age of Ultron","poster_path":"\/4ssDuvEDkSArWEdyBl2X5EHvYKU.jpg","vote_average":7.3},{"video":false,"id":211672,"popularity":27.207,"vote_count":8376,"release_date":"2015-06-17","adult":false,"backdrop_path":"\/pnUSd4ILEp5pYChRNxznuaupGrN.jpg","vote_average":6.4,"genre_ids":[10751,16,12,35],"overview":"Minions Stuart, Kevin and Bob are recruited by Scarlet Overkill, a super-villain who, alongside her inventor husband Herb, hatches a plot to take over the world.","original_language":"en","original_title":"Minions","poster_path":"\/vlOgaxUiMOA8sPDG9n3VhQabnEi.jpg","title":"Minions"},{"video":false,"id":206647,"popularity":42.077,"vote_count":7949,"release_date":"2015-10-26","adult":false,"backdrop_path":"\/n1VZsWIi4missUgUXRfCG9HXFKe.jpg","vote_average":6.5,"genre_ids":[28,12,53],"overview":"A cryptic message from Bond’s past sends him on a trail to uncover a sinister organization. While M battles political forces to keep the secret service alive, Bond peels back the layers of deceit to reveal the terrible truth behind SPECTRE.","original_language":"en","original_title":"Spectre","poster_path":"\/672kUEMtTHcaVYSVY4eiHEliHFa.jpg","title":"Spectre"},{"video":false,"id":150540,"popularity":58.066,"vote_count":15674,"release_date":"2015-06-09","adult":false,"backdrop_path":"\/o3i6AfTcWAuNvzAUV3q5lOmi6Gx.jpg","vote_average":7.9,"genre_ids":[16,10751,12,18,35],"overview":"Growing up can be a bumpy road, and it's no exception for Riley, who is uprooted from her Midwest life when her father starts a new job in San Francisco. Riley's guiding emotions— Joy, Fear, Anger, Disgust and Sadness—live in Headquarters, the control centre inside Riley's mind, where they help advise her through everyday life and tries to keep things positive, but the emotions conflict on how best to navigate a new city, house and school.","original_language":"en","original_title":"Inside Out","poster_path":"\/lRHE0vzf3oYJrhbsHXjIkF4Tl5A.jpg","title":"Inside Out"},{"video":false,"id":177677,"popularity":34.286,"overview":"Ethan and team take on their most impossible mission yet—eradicating 'The Syndicate', an International and highly-skilled rogue organisation committed to destroying the IMF.","release_date":"2015-07-23","adult":false,"backdrop_path":"\/ki5RnA0xNOEd3R0RohXqJt9R6Om.jpg","title":"Mission: Impossible - Rogue Nation","genre_ids":[28,12],"vote_average":7.2,"original_language":"en","original_title":"Mission: Impossible - Rogue Nation","poster_path":"\/oUDKymEL932AeHyl4A4ee8zuBLF.jpg","vote_count":6328},{"video":false,"vote_average":6.9,"popularity":46.896,"overview":"With the nation of Panem in a full scale war, Katniss confronts President Snow in the final showdown. Teamed with a group of her closest friends – including Gale, Finnick, and Peeta – Katniss goes off on a mission with the unit from District 13 as they risk their lives to stage an assassination attempt on President Snow who has become increasingly obsessed with destroying her. The mortal traps, enemies, and moral choices that await Katniss will challenge her more than any arena she faced in The Hunger Games.","release_date":"2015-11-18","adult":false,"backdrop_path":"\/2l5qmfxDN98JFKpUy1n4vcLUPmv.jpg","id":131634,"genre_ids":[28,12,878],"vote_count":9235,"original_language":"en","title":"The Hunger Games: Mockingjay - Part 2","poster_path":"\/lImKHDfExAulp16grYm8zD5eONE.jpg","original_title":"The Hunger Games: Mockingjay - Part 2"},{"video":false,"id":286217,"popularity":36.506,"vote_count":14853,"release_date":"2015-09-30","adult":false,"backdrop_path":"\/zF0z412EMsbQ5crsf1CckxnTAv0.jpg","vote_average":7.7,"genre_ids":[18,12,878],"overview":"During a manned mission to Mars, Astronaut Mark Watney is presumed dead after a fierce storm and left behind by his crew. But Watney has survived and finds himself stranded and alone on the hostile planet. With only meager supplies, he must draw upon his ingenuity, wit and spirit to subsist and find a way to signal to Earth that he is alive.","original_language":"en","original_title":"The Martian","poster_path":"\/5BHuvQ6p9kfc091Z8RiFNhCwL4b.jpg","title":"The Martian"},{"video":false,"id":216015,"popularity":74.429,"vote_count":8863,"release_date":"2015-02-11","adult":false,"backdrop_path":"\/7IGKrY1f1KfwMipx9wZC4NRgIdF.jpg","vote_average":5.8,"genre_ids":[18,53,10749],"overview":"When college senior Anastasia Steele steps in for her sick roommate to interview prominent businessman Christian Grey for their campus paper, little does she realize the path her life will take. Christian, as enigmatic as he is rich and powerful, finds himself strangely drawn to Ana, and she to him. Though sexually inexperienced, Ana plunges headlong into an affair -- and learns that Christian's true sexual proclivities push the boundaries of pain and pleasure.","original_language":"en","original_title":"Fifty Shades of Grey","poster_path":"\/63kGofUkt1Mx0SIL4XI4Z5AoSgt.jpg","title":"Fifty Shades of Grey"},{"video":false,"id":150689,"popularity":49.36,"vote_count":5571,"release_date":"2015-03-12","adult":false,"backdrop_path":"\/q7vmCCmyiHnuKGMzHZlr0fD44b9.jpg","vote_average":6.8,"genre_ids":[10749,14,10751,18],"overview":"When her father unexpectedly passes away, young Ella finds herself at the mercy of her cruel stepmother and her daughters. Never one to give up hope, Ella's fortunes begin to change after meeting a dashing stranger in the woods.","original_language":"en","original_title":"Cinderella","poster_path":"\/ryKwNlAfDXu0do6SX9h4G9Si1kG.jpg","title":"Cinderella"},{"video":false,"id":281957,"popularity":39.707,"overview":"In the 1820s, a frontiersman, Hugh Glass, sets out on a path of vengeance against those who left him for dead after a bear mauling.","release_date":"2015-12-25","adult":false,"backdrop_path":"\/nMfH0LMMFk2ovyURkYvyTI99nSo.jpg","vote_count":13809,"genre_ids":[37,18,12],"vote_average":7.5,"original_language":"en","original_title":"The Revenant","poster_path":"\/ji3ecJphATlVgWNY0B0RVXZizdf.jpg","title":"The Revenant"},{"video":false,"vote_average":7.1,"popularity":45.193,"vote_count":14748,"release_date":"2015-07-14","adult":false,"backdrop_path":"\/7AyEEZVtFjNMCOEoz88pBqiAI8n.jpg","id":102899,"genre_ids":[878,28,12],"title":"Ant-Man","original_language":"en","original_title":"Ant-Man","poster_path":"\/rQRnQfUl3kfp78nCWq8Ks04vnq1.jpg","overview":"Armed with the astonishing ability to shrink in scale but increase in strength, master thief Scott Lang must embrace his inner-hero and help his mentor, Doctor Hank Pym, protect the secret behind his spectacular Ant-Man suit from a new generation of towering threats. Against seemingly insurmountable obstacles, Pym and Lang must plan and pull off a heist that will save the world."},{"video":false,"id":254128,"popularity":61.447,"vote_count":6249,"release_date":"2015-05-27","adult":false,"backdrop_path":"\/xYRUnZvUOrAhCw8CrBSLtbVVwNl.jpg","vote_average":6.2,"genre_ids":[28,18,53],"overview":"In the aftermath of a massive earthquake in California, a rescue-chopper pilot makes a dangerous journey across the state in order to rescue his estranged daughter.","original_language":"en","original_title":"San Andreas","poster_path":"\/2Gfjn962aaFSD6eST6QU3oLDZTo.jpg","title":"San Andreas"},{"video":false,"id":159824,"popularity":39.463,"overview":"When the old-old-old-fashioned vampire Vlad arrives at the hotel for an impromptu family get-together, Hotel Transylvania is in for a collision of supernatural old-school and modern day cool.","release_date":"2015-09-21","adult":false,"backdrop_path":"\/2OQYAP64ybQZBiOcjthMVFcQRE.jpg","vote_count":4087,"genre_ids":[16,35,10751,14],"vote_average":6.8,"original_language":"en","original_title":"Hotel Transylvania 2","poster_path":"\/kKFgwQnR5q08UFsAvtoYyTIiHyj.jpg","title":"Hotel Transylvania 2"},{"video":false,"id":87101,"popularity":63.926,"vote_count":6378,"release_date":"2015-06-23","adult":false,"backdrop_path":"\/g4a5YLWwi6OCp8TcvxsUNrXMbN5.jpg","vote_average":5.9,"genre_ids":[878,28,53,12],"overview":"The year is 2029. John Connor, leader of the resistance continues the war against the machines. At the Los Angeles offensive, John's fears of the unknown future begin to emerge when TECOM spies reveal a new plot by SkyNet that will attack him from both fronts; past and future, and will ultimately change warfare forever.","original_language":"en","original_title":"Terminator Genisys","poster_path":"\/oZRVDpNtmHk8M1VYy1aeOWUXgbC.jpg","title":"Terminator Genisys"},{"video":false,"id":76341,"popularity":56.496,"vote_count":17230,"release_date":"2015-05-13","adult":false,"backdrop_path":"\/nlCHUWjY9XWbuEUQauCBgnY8ymF.jpg","vote_average":7.5,"genre_ids":[28,12,878],"overview":"An apocalyptic story set in the furthest reaches of our planet, in a stark desert landscape where humanity is broken, and most everyone is crazed fighting for the necessities of life. Within this world exist two rebels on the run who just might be able to restore order.","original_language":"en","original_title":"Mad Max: Fury Road","poster_path":"\/8tZYtuWezp8JbcsvHYO0O46tFbo.jpg","title":"Mad Max: Fury Road"},{"video":false,"id":228161,"popularity":41.824,"overview":"When Earth is taken over by the overly-confident Boov, an alien race in search of a new place to call home, all humans are promptly relocated, while all Boov get busy reorganizing the planet. But when one resourceful girl, Tip, manages to avoid capture, she finds herself the accidental accomplice of a banished Boov named Oh. The two fugitives realize there’s a lot more at stake than intergalactic relations as they embark on the road trip of a lifetime.","release_date":"2015-03-18","adult":false,"backdrop_path":"\/bDIMQRfyK4mVoR6G58CTtu50zST.jpg","vote_count":2928,"genre_ids":[14,35,16,878,10751],"vote_average":6.8,"original_language":"en","original_title":"Home","poster_path":"\/usFenYnk6mr8C62dB1MoAfSWMGR.jpg","title":"Home"},{"video":false,"id":105864,"popularity":48.684,"vote_count":3995,"release_date":"2015-11-14","adult":false,"backdrop_path":"\/s4wRC37TUwxtghhFBaze0qO1278.jpg","vote_average":6.8,"genre_ids":[12,16,10751],"overview":"An epic journey into the world of dinosaurs where an Apatosaurus named Arlo makes an unlikely human friend.","original_language":"en","original_title":"The Good Dinosaur","poster_path":"\/dM50iVbcnzQUIoc9TmUUk0SP4P4.jpg","title":"The Good Dinosaur"}]}